wave.vcd
$date
	Sat Aug 30 12:42:28 2025
$end
$version
	Icarus Verilog
$end
$timescale
	1s
$end
$scope module tb_B $end
$var wire 8 ! Data_out [7:0] $end
$var reg 4 " Data_in1 [3:0] $end
$var reg 4 # Data_in2 [3:0] $end
$var reg 1 $ clk $end
$var reg 1 % rst $end
$var reg 1 & start $end
$var reg 1 ' t_ready $end
$var integer 32 ( fail_count [31:0] $end
$var integer 32 ) pass_count [31:0] $end
$scope module uut $end
$var wire 4 * Data_in1 [3:0] $end
$var wire 4 + Data_in2 [3:0] $end
$var wire 1 ' T_Ready $end
$var wire 1 $ clk $end
$var wire 1 % rst $end
$var wire 1 & start $end
$var wire 1 , valid_product $end
$var wire 128 - product [127:0] $end
$var parameter 32 . PROD_FIFO_DEPTH $end
$var reg 8 / Data_out [7:0] $end
$var reg 4 0 byte_idx [3:0] $end
$var reg 6 1 count_stage1 [5:0] $end
$var reg 6 2 count_stage2 [5:0] $end
$var reg 6 3 count_stage3 [5:0] $end
$var reg 128 4 cur_product [127:0] $end
$var reg 3 5 fifo_count [2:0] $end
$var reg 2 6 fifo_rd_ptr [1:0] $end
$var reg 2 7 fifo_wr_ptr [1:0] $end
$var reg 4 8 in1_stage1 [3:0] $end
$var reg 4 9 in2_stage1 [3:0] $end
$var reg 64 : kar_A [63:0] $end
$var reg 64 ; kar_B [63:0] $end
$var reg 1 < kar_start $end
$var reg 2 = mul_state [1:0] $end
$var reg 64 > number1_stage3 [63:0] $end
$var reg 64 ? number2_stage3 [63:0] $end
$var reg 4 @ prod_count [3:0] $end
$var reg 3 A prod_rd_ptr [2:0] $end
$var reg 3 B prod_wr_ptr [2:0] $end
$var reg 1 C sending $end
$var reg 64 D shifted1_stage2 [63:0] $end
$var reg 64 E shifted2_stage2 [63:0] $end
$var reg 1 F storing $end
$var reg 1 G valid_stage1 $end
$var reg 1 H valid_stage2 $end
$var reg 1 I valid_stage3 $end
$scope module kar_inst $end
$var wire 64 J A [63:0] $end
$var wire 64 K B [63:0] $end
$var wire 128 L P [127:0] $end
$var wire 1 $ clk $end
$var wire 1 % rst $end
$var wire 1 < start $end
$var wire 1 , valid_out $end
$var wire 68 M z2 [67:0] $end
$var wire 68 N z1 [67:0] $end
$var wire 68 O z0 [67:0] $end
$var wire 1 P v2 $end
$var wire 1 Q v1 $end
$var wire 1 R v0 $end
$var wire 34 S sumB [33:0] $end
$var wire 34 T sumA [33:0] $end
$var wire 34 U B_lo [33:0] $end
$var wire 34 V B_hi [33:0] $end
$var wire 34 W A_lo [33:0] $end
$var wire 34 X A_hi [33:0] $end
$var reg 101 Y P_full [100:0] $end
$var reg 128 Z P_reg [127:0] $end
$var reg 201 [ mid_ext [200:0] $end
$var reg 1 \ start_z0 $end
$var reg 1 ] start_z1 $end
$var reg 1 ^ start_z2 $end
$var reg 3 _ state [2:0] $end
$var reg 1 ` valid_reg $end
$var reg 201 a z0_ext [200:0] $end
$var reg 201 b z1_ext [200:0] $end
$scope module k0 $end
$var wire 34 c A [33:0] $end
$var wire 34 d B [33:0] $end
$var wire 1 $ clk $end
$var wire 1 % rst $end
$var wire 1 \ start $end
$var wire 1 R valid_out $end
$var wire 36 e z2 [35:0] $end
$var wire 36 f z1 [35:0] $end
$var wire 36 g z0 [35:0] $end
$var wire 18 h sumB [17:0] $end
$var wire 18 i sumA [17:0] $end
$var wire 1 j d2 $end
$var wire 1 k d1 $end
$var wire 1 l d0 $end
$var wire 68 m P [67:0] $end
$var wire 18 n B_lo [17:0] $end
$var wire 18 o B_hi [17:0] $end
$var wire 18 p A_lo [17:0] $end
$var wire 18 q A_hi [17:0] $end
$var reg 72 r P_reg [71:0] $end
$var reg 72 s mid_ext [71:0] $end
$var reg 1 t start_m0 $end
$var reg 1 u start_m1 $end
$var reg 1 v start_m2 $end
$var reg 3 w state [2:0] $end
$var reg 1 x valid_reg $end
$var reg 72 y z0_ext [71:0] $end
$var reg 72 z z1_ext [71:0] $end
$scope module m0 $end
$var wire 18 { A [17:0] $end
$var wire 18 | B [17:0] $end
$var wire 1 $ clk $end
$var wire 1 % rst $end
$var wire 1 t start $end
$var reg 36 } P [35:0] $end
$var reg 1 ~ busy $end
$var reg 1 l done $end
$upscope $end
$scope module m1 $end
$var wire 18 !" A [17:0] $end
$var wire 18 "" B [17:0] $end
$var wire 1 $ clk $end
$var wire 1 % rst $end
$var wire 1 u start $end
$var reg 36 #" P [35:0] $end
$var reg 1 $" busy $end
$var reg 1 k done $end
$upscope $end
$scope module m2 $end
$var wire 18 %" A [17:0] $end
$var wire 18 &" B [17:0] $end
$var wire 1 $ clk $end
$var wire 1 % rst $end
$var wire 1 v start $end
$var reg 36 '" P [35:0] $end
$var reg 1 (" busy $end
$var reg 1 j done $end
$upscope $end
$upscope $end
$scope module k1 $end
$var wire 34 )" A [33:0] $end
$var wire 34 *" B [33:0] $end
$var wire 1 $ clk $end
$var wire 1 % rst $end
$var wire 1 ] start $end
$var wire 1 Q valid_out $end
$var wire 36 +" z2 [35:0] $end
$var wire 36 ," z1 [35:0] $end
$var wire 36 -" z0 [35:0] $end
$var wire 18 ." sumB [17:0] $end
$var wire 18 /" sumA [17:0] $end
$var wire 1 0" d2 $end
$var wire 1 1" d1 $end
$var wire 1 2" d0 $end
$var wire 68 3" P [67:0] $end
$var wire 18 4" B_lo [17:0] $end
$var wire 18 5" B_hi [17:0] $end
$var wire 18 6" A_lo [17:0] $end
$var wire 18 7" A_hi [17:0] $end
$var reg 72 8" P_reg [71:0] $end
$var reg 72 9" mid_ext [71:0] $end
$var reg 1 :" start_m0 $end
$var reg 1 ;" start_m1 $end
$var reg 1 <" start_m2 $end
$var reg 3 =" state [2:0] $end
$var reg 1 >" valid_reg $end
$var reg 72 ?" z0_ext [71:0] $end
$var reg 72 @" z1_ext [71:0] $end
$scope module m0 $end
$var wire 18 A" A [17:0] $end
$var wire 18 B" B [17:0] $end
$var wire 1 $ clk $end
$var wire 1 % rst $end
$var wire 1 :" start $end
$var reg 36 C" P [35:0] $end
$var reg 1 D" busy $end
$var reg 1 2" done $end
$upscope $end
$scope module m1 $end
$var wire 18 E" A [17:0] $end
$var wire 18 F" B [17:0] $end
$var wire 1 $ clk $end
$var wire 1 % rst $end
$var wire 1 ;" start $end
$var reg 36 G" P [35:0] $end
$var reg 1 H" busy $end
$var reg 1 1" done $end
$upscope $end
$scope module m2 $end
$var wire 18 I" A [17:0] $end
$var wire 18 J" B [17:0] $end
$var wire 1 $ clk $end
$var wire 1 % rst $end
$var wire 1 <" start $end
$var reg 36 K" P [35:0] $end
$var reg 1 L" busy $end
$var reg 1 0" done $end
$upscope $end
$upscope $end
$scope module k2 $end
$var wire 34 M" A [33:0] $end
$var wire 34 N" B [33:0] $end
$var wire 1 $ clk $end
$var wire 1 % rst $end
$var wire 1 ^ start $end
$var wire 1 P valid_out $end
$var wire 36 O" z2 [35:0] $end
$var wire 36 P" z1 [35:0] $end
$var wire 36 Q" z0 [35:0] $end
$var wire 18 R" sumB [17:0] $end
$var wire 18 S" sumA [17:0] $end
$var wire 1 T" d2 $end
$var wire 1 U" d1 $end
$var wire 1 V" d0 $end
$var wire 68 W" P [67:0] $end
$var wire 18 X" B_lo [17:0] $end
$var wire 18 Y" B_hi [17:0] $end
$var wire 18 Z" A_lo [17:0] $end
$var wire 18 [" A_hi [17:0] $end
$var reg 72 \" P_reg [71:0] $end
$var reg 72 ]" mid_ext [71:0] $end
$var reg 1 ^" start_m0 $end
$var reg 1 _" start_m1 $end
$var reg 1 `" start_m2 $end
$var reg 3 a" state [2:0] $end
$var reg 1 b" valid_reg $end
$var reg 72 c" z0_ext [71:0] $end
$var reg 72 d" z1_ext [71:0] $end
$scope module m0 $end
$var wire 18 e" A [17:0] $end
$var wire 18 f" B [17:0] $end
$var wire 1 $ clk $end
$var wire 1 % rst $end
$var wire 1 ^" start $end
$var reg 36 g" P [35:0] $end
$var reg 1 h" busy $end
$var reg 1 V" done $end
$upscope $end
$scope module m1 $end
$var wire 18 i" A [17:0] $end
$var wire 18 j" B [17:0] $end
$var wire 1 $ clk $end
$var wire 1 % rst $end
$var wire 1 _" start $end
$var reg 36 k" P [35:0] $end
$var reg 1 l" busy $end
$var reg 1 U" done $end
$upscope $end
$scope module m2 $end
$var wire 18 m" A [17:0] $end
$var wire 18 n" B [17:0] $end
$var wire 1 $ clk $end
$var wire 1 % rst $end
$var wire 1 `" start $end
$var reg 36 o" P [35:0] $end
$var reg 1 p" busy $end
$var reg 1 T" done $end
$upscope $end
$upscope $end
$upscope $end
$upscope $end
$scope begin $unm_blk_55 $end
$var reg 64 q" A [63:0] $end
$var reg 64 r" B [63:0] $end
$upscope $end
$scope task receive_and_check $end
$var reg 128 s" expected_product [127:0] $end
$var reg 128 t" product [127:0] $end
$upscope $end
$scope task receive_product $end
$var reg 128 u" product [127:0] $end
$var integer 32 v" i [31:0] $end
$upscope $end
$scope task send_64bit $end
$var reg 64 w" num1 [63:0] $end
$var reg 64 x" num2 [63:0] $end
$var integer 32 y" i [31:0] $end
$upscope $end
$upscope $end
$enddefinitions $end
$comment Show the parameter values. $end
$dumpall
b1000 .
$end
#0
$dumpvars
bx y"
bx x"
bx w"
bx v"
bx u"
bx t"
bx s"
b1000000100010010101111010000001 r"
b10010010000101010011010100100100 q"
0p"
b0 o"
b0 n"
b0 m"
0l"
b0 k"
b0 j"
b0 i"
0h"
b0 g"
b0 f"
b0 e"
bx d"
bx c"
0b"
b0 a"
0`"
0_"
0^"
bx ]"
b0 \"
b0 ["
b0 Z"
b0 Y"
b0 X"
b0 W"
0V"
0U"
0T"
b0 S"
b0 R"
b0 Q"
b0 P"
b0 O"
b0 N"
b0 M"
0L"
b0 K"
b0 J"
b0 I"
0H"
b0 G"
b0 F"
b0 E"
0D"
b0 C"
b0 B"
b0 A"
bx @"
bx ?"
0>"
b0 ="
0<"
0;"
0:"
bx 9"
b0 8"
b0 7"
b0 6"
b0 5"
b0 4"
b0 3"
02"
01"
00"
b0 /"
b0 ."
b0 -"
b0 ,"
b0 +"
b0 *"
b0 )"
0("
b0 '"
b0 &"
b0 %"
0$"
b0 #"
b0 ""
b0 !"
0~
b0 }
b0 |
b0 {
bx z
bx y
0x
b0 w
0v
0u
0t
bx s
b0 r
b0 q
b0 p
b0 o
b0 n
b0 m
0l
0k
0j
b0 i
b0 h
b0 g
b0 f
b0 e
b0 d
b0 c
bx b
bx a
0`
b0 _
0^
0]
0\
bx [
b0 Z
bx Y
b0 X
b0 W
b0 V
b0 U
b0 T
b0 S
0R
0Q
0P
b0 O
b0 N
b0 M
b0 L
b0 K
b0 J
0I
0H
0G
0F
b0 E
b0 D
0C
b0 B
b0 A
b0 @
b0 ?
b0 >
b0 =
0<
b0 ;
b0 :
b0 9
b0 8
b0 7
b0 6
b0 5
bx 4
b0 3
b0 2
b0 1
b0 0
b0 /
b0 -
0,
b0 +
b0 *
b0 )
b0 (
1'
0&
1%
0$
b0 #
b0 "
b0 !
$end
#5
1$
#10
0$
#15
1$
#20
0$
#25
b1000 x"
b1 w"
1%
1$
#30
0$
#35
b11111111 !
b11111111 /
0%
1$
#40
0$
#45
1G
b1 1
1F
1&
b1111 y"
1$
#50
0$
#55
b10 1
1H
b1 2
0&
b1110 y"
1$
#60
0$
#65
1I
b1 3
b10 2
b11 1
b1101 y"
1$
#70
0$
#75
b100 1
b11 2
b10 3
b1100 y"
1$
#80
0$
#85
b11 3
b100 2
b101 1
b1011 y"
1$
#90
0$
#95
b110 1
b101 2
b100 3
b1010 y"
1$
#100
0$
#105
b101 3
b110 2
b111 1
b1001 y"
1$
#110
0$
#115
b1000 1
b111 2
b110 3
b1000 y"
1$
#120
0$
#125
b111 3
b1000 2
b1001 1
b111 y"
1$
#130
0$
#135
b1010 1
b1001 2
b1000 3
b110 y"
1$
#140
0$
#145
b1001 3
b1010 2
b1011 1
b101 y"
1$
#150
0$
#155
b1100 1
b1011 2
b1010 3
b100 y"
1$
#160
0$
#165
b1011 3
b1100 2
b1101 1
b11 y"
1$
#170
0$
#175
b1110 1
b1101 2
b1100 3
b10 y"
1$
#180
0$
#185
b1101 3
b1110 2
b1111 1
b1 y"
1$
#190
0$
#195
0F
b10000 1
b1000 9
b1 8
b1111 2
b1110 3
b1000 #
b1000 +
b1 "
b1 *
b0 y"
1$
#200
0$
#205
b1111 3
b10000 2
b1000 E
b1 D
0G
b0 v"
b0 u"
b1000 s"
b0 #
b0 +
b0 "
b0 *
b11111111111111111111111111111111 y"
1$
#210
0$
#215
0H
b10000 3
b1000 ?
b1 >
1$
#220
0$
#225
b1 5
b1 7
0I
1$
#230
0$
#235
b1 =
1$
#240
0$
#245
b1000 R"
b1000 n"
b1000 h
b1000 &"
b1 S"
b1 m"
b1 i
b1 %"
b1000 X"
b1000 f"
b1000 n
b1000 |
b1 Z"
b1 e"
b1 p
b1 {
b1000 S
b1000 N"
b1000 U
b1000 d
b1 T
b1 M"
b1 W
b1 c
b10 =
1<
b1000 ;
b1000 K
b1 :
b1 J
1$
#250
0$
#255
b1 _
0<
1$
#260
0$
#265
b10 _
1\
1$
#270
0$
#275
b1 w
0\
1$
#280
0$
#285
b10 w
1t
1$
#290
0$
#295
1~
1l
b1000 g
b1000 }
0t
1$
#300
0$
#305
b11 w
0~
0l
1$
#310
0$
#315
b100 w
1u
1$
#320
0$
#325
0u
1$"
1k
1$
#330
0$
#335
0$"
0k
b101 w
1$
#340
0$
#345
b110 w
1v
1$
#350
0$
#355
1("
1j
b1000 e
b1000 '"
0v
1$
#360
0$
#365
b111 w
0("
0j
1$
#370
0$
#375
b1000 O
b1000 m
1R
1x
b1000 r
b0 s
b0 z
b1000 y
1$
#380
0$
#385
b11 _
1R
1x
1$
#390
0$
#395
1R
1x
b100 _
1]
1$
#400
0$
#405
0]
b1 ="
1R
1x
1$
#410
0$
#415
1R
1x
b10 ="
1:"
1$
#420
0$
#425
0:"
1D"
12"
1R
1x
1$
#430
0$
#435
1R
1x
0D"
02"
b11 ="
1$
#440
0$
#445
b100 ="
1;"
1R
1x
1$
#450
0$
#455
1R
1x
1H"
11"
0;"
1$
#460
0$
#465
b101 ="
0H"
01"
1R
1x
1$
#470
0$
#475
1R
1x
b110 ="
1<"
1$
#480
0$
#485
0<"
1L"
10"
1R
1x
1$
#490
0$
#495
1R
1x
0L"
00"
b111 ="
1$
#500
0$
#505
1Q
1>"
1R
1x
b0 9"
b0 @"
b0 ?"
1$
#510
0$
#515
1R
1x
1Q
1>"
b101 _
1$
#520
0$
#525
b110 _
1^
1Q
1>"
1R
1x
1$
#530
0$
#535
1R
1x
1Q
1>"
b1 a"
0^
1$
#540
0$
#545
b10 a"
1^"
1Q
1>"
1R
1x
1$
#550
0$
#555
1R
1x
1Q
1>"
1h"
1V"
b1000 Q"
b1000 g"
0^"
1$
#560
0$
#565
b11 a"
0h"
0V"
1Q
1>"
1R
1x
1$
#570
0$
#575
1R
1x
1Q
1>"
b100 a"
1_"
1$
#580
0$
#585
0_"
1l"
1U"
1Q
1>"
1R
1x
1$
#590
0$
#595
1R
1x
1Q
1>"
0l"
0U"
b101 a"
1$
#600
0$
#605
b110 a"
1`"
1Q
1>"
1R
1x
1$
#610
0$
#615
1R
1x
1Q
1>"
1p"
1T"
b1000 O"
b1000 o"
0`"
1$
#620
0$
#625
b111 a"
0p"
0T"
1Q
1>"
1R
1x
1$
#630
0$
#635
b1000 M
b1000 W"
1R
1x
1Q
1>"
1P
1b"
b1000 \"
b0 ]"
b0 d"
b1000 c"
1$
#640
0$
#645
b111 _
1P
1b"
1Q
1>"
1R
1x
1$
#650
0$
#655
1R
1x
1Q
1>"
1P
1b"
b0 _
1,
1`
b1000 -
b1000 L
b1000 Z
b1000 Y
b0 [
b0 b
b1000 a
1$
#660
0$
#665
b0 =
b0 5
b1 6
b1 @
b1 B
0,
0`
1P
1b"
1Q
1>"
1R
1x
1$
#670
0$
#675
1R
1x
1Q
1>"
1P
1b"
1C
b0 @
b1 A
b1000 4
1$
#680
0$
#685
b1 0
b1000 !
b1000 /
1P
1b"
1Q
1>"
1R
1x
1$
#690
0$
#695
1R
1x
1Q
1>"
1P
1b"
b10 0
b0 !
b0 /
b1 v"
b1000 u"
1$
#700
0$
#705
b11 0
1P
1b"
1Q
1>"
1R
1x
b10 v"
1$
#710
0$
#715
1R
1x
1Q
1>"
1P
1b"
b100 0
b11 v"
1$
#720
0$
#725
b101 0
1P
1b"
1Q
1>"
1R
1x
b100 v"
1$
#730
0$
#735
1R
1x
1Q
1>"
1P
1b"
b110 0
b101 v"
1$
#740
0$
#745
b111 0
1P
1b"
1Q
1>"
1R
1x
b110 v"
1$
#750
0$
#755
1R
1x
1Q
1>"
1P
1b"
b1000 0
b111 v"
1$
#760
0$
#765
b1001 0
1P
1b"
1Q
1>"
1R
1x
b1000 v"
1$
#770
0$
#775
1R
1x
1Q
1>"
1P
1b"
b1010 0
b1001 v"
1$
#780
0$
#785
b1011 0
1P
1b"
1Q
1>"
1R
1x
b1010 v"
1$
#790
0$
#795
1R
1x
1Q
1>"
1P
1b"
b1100 0
b1011 v"
1$
#800
0$
#805
b1101 0
1P
1b"
1Q
1>"
1R
1x
b1100 v"
1$
#810
0$
#815
1R
1x
1Q
1>"
1P
1b"
b1110 0
b1101 v"
1$
#820
0$
#825
b1111 0
1P
1b"
1Q
1>"
1R
1x
b1110 v"
1$
#830
0$
#835
1R
1x
1Q
1>"
1P
1b"
0C
b1111 v"
1$
#840
0$
#845
b0 R"
b0 n"
b0 h
b0 &"
b0 S"
b0 m"
b0 i
b0 %"
b0 X"
b0 f"
b0 n
b0 |
b0 Z"
b0 e"
b0 p
b0 {
b0 S
b0 N"
b0 U
b0 d
b0 T
b0 M"
b0 W
b0 c
b0 M
b0 W"
b0 O
b0 m
b0 0
b0 A
b0 B
b0 ;
b0 K
b0 :
b0 J
b0 6
b0 7
b0 3
b0 ?
b0 >
b0 2
b0 E
b0 D
b0 1
b0 9
b0 8
b0 -
b0 L
b0 Z
0P
0b"
b0 \"
b0 a"
b0 O"
b0 o"
b0 Q"
b0 g"
0Q
0>"
b0 ="
0R
0x
b0 r
b0 w
b0 e
b0 '"
b0 g
b0 }
1%
b11 x"
b10 w"
b1 )
b1000 t"
b10000 v"
1$
#850
0$
#855
b11111111 !
b11111111 /
0%
1$
#860
0$
#865
1G
b1 1
1F
1&
b1111 y"
1$
#870
0$
#875
b10 1
1H
b1 2
0&
b1110 y"
1$
#880
0$
#885
1I
b1 3
b10 2
b11 1
b1101 y"
1$
#890
0$
#895
b100 1
b11 2
b10 3
b1100 y"
1$
#900
0$
#905
b11 3
b100 2
b101 1
b1011 y"
1$
#910
0$
#915
b110 1
b101 2
b100 3
b1010 y"
1$
#920
0$
#925
b101 3
b110 2
b111 1
b1001 y"
1$
#930
0$
#935
b1000 1
b111 2
b110 3
b1000 y"
1$
#940
0$
#945
b111 3
b1000 2
b1001 1
b111 y"
1$
#950
0$
#955
b1010 1
b1001 2
b1000 3
b110 y"
1$
#960
0$
#965
b1001 3
b1010 2
b1011 1
b101 y"
1$
#970
0$
#975
b1100 1
b1011 2
b1010 3
b100 y"
1$
#980
0$
#985
b1011 3
b1100 2
b1101 1
b11 y"
1$
#990
0$
#995
b1110 1
b1101 2
b1100 3
b10 y"
1$
#1000
0$
#1005
b1101 3
b1110 2
b1111 1
b1 y"
1$
#1010
0$
#1015
0F
b10000 1
b11 9
b10 8
b1111 2
b1110 3
b11 #
b11 +
b10 "
b10 *
b0 y"
1$
#1020
0$
#1025
b1111 3
b10000 2
b11 E
b10 D
0G
b0 v"
b0 u"
b110 s"
b0 #
b0 +
b0 "
b0 *
b11111111111111111111111111111111 y"
1$
#1030
0$
#1035
0H
b10000 3
b11 ?
b10 >
1$
#1040
0$
#1045
b1 5
b1 7
0I
1$
#1050
0$
#1055
b1 =
1$
#1060
0$
#1065
b11 R"
b11 n"
b11 h
b11 &"
b10 S"
b10 m"
b10 i
b10 %"
b11 X"
b11 f"
b11 n
b11 |
b10 Z"
b10 e"
b10 p
b10 {
b11 S
b11 N"
b11 U
b11 d
b10 T
b10 M"
b10 W
b10 c
b10 =
1<
b11 ;
b11 K
b10 :
b10 J
1$
#1070
0$
#1075
b1 _
0<
1$
#1080
0$
#1085
b10 _
1\
1$
#1090
0$
#1095
b1 w
0\
1$
#1100
0$
#1105
b10 w
1t
1$
#1110
0$
#1115
1~
1l
b110 g
b110 }
0t
1$
#1120
0$
#1125
b11 w
0~
0l
1$
#1130
0$
#1135
b100 w
1u
1$
#1140
0$
#1145
0u
1$"
1k
1$
#1150
0$
#1155
0$"
0k
b101 w
1$
#1160
0$
#1165
b110 w
1v
1$
#1170
0$
#1175
1("
1j
b110 e
b110 '"
0v
1$
#1180
0$
#1185
b111 w
0("
0j
1$
#1190
0$
#1195
b110 O
b110 m
1R
1x
b110 r
b110 y
1$
#1200
0$
#1205
b11 _
1R
1x
1$
#1210
0$
#1215
1R
1x
b100 _
1]
1$
#1220
0$
#1225
0]
b1 ="
1R
1x
1$
#1230
0$
#1235
1R
1x
b10 ="
1:"
1$
#1240
0$
#1245
0:"
1D"
12"
1R
1x
1$
#1250
0$
#1255
1R
1x
0D"
02"
b11 ="
1$
#1260
0$
#1265
b100 ="
1;"
1R
1x
1$
#1270
0$
#1275
1R
1x
1H"
11"
0;"
1$
#1280
0$
#1285
b101 ="
0H"
01"
1R
1x
1$
#1290
0$
#1295
1R
1x
b110 ="
1<"
1$
#1300
0$
#1305
0<"
1L"
10"
1R
1x
1$
#1310
0$
#1315
1R
1x
0L"
00"
b111 ="
1$
#1320
0$
#1325
1Q
1>"
1R
1x
1$
#1330
0$
#1335
1R
1x
1Q
1>"
b101 _
1$
#1340
0$
#1345
b110 _
1^
1Q
1>"
1R
1x
1$
#1350
0$
#1355
1R
1x
1Q
1>"
b1 a"
0^
1$
#1360
0$
#1365
b10 a"
1^"
1Q
1>"
1R
1x
1$
#1370
0$
#1375
1R
1x
1Q
1>"
1h"
1V"
b110 Q"
b110 g"
0^"
1$
#1380
0$
#1385
b11 a"
0h"
0V"
1Q
1>"
1R
1x
1$
#1390
0$
#1395
1R
1x
1Q
1>"
b100 a"
1_"
1$
#1400
0$
#1405
0_"
1l"
1U"
1Q
1>"
1R
1x
1$
#1410
0$
#1415
1R
1x
1Q
1>"
0l"
0U"
b101 a"
1$
#1420
0$
#1425
b110 a"
1`"
1Q
1>"
1R
1x
1$
#1430
0$
#1435
1R
1x
1Q
1>"
1p"
1T"
b110 O"
b110 o"
0`"
1$
#1440
0$
#1445
b111 a"
0p"
0T"
1Q
1>"
1R
1x
1$
#1450
0$
#1455
b110 M
b110 W"
1R
1x
1Q
1>"
1P
1b"
b110 \"
b110 c"
1$
#1460
0$
#1465
b111 _
1P
1b"
1Q
1>"
1R
1x
1$
#1470
0$
#1475
1R
1x
1Q
1>"
1P
1b"
b0 _
1,
1`
b110 -
b110 L
b110 Z
b110 Y
b110 a
1$
#1480
0$
#1485
b0 =
b0 5
b1 6
b1 @
b1 B
0,
0`
1P
1b"
1Q
1>"
1R
1x
1$
#1490
0$
#1495
1R
1x
1Q
1>"
1P
1b"
1C
b0 @
b1 A
b110 4
1$
#1500
0$
#1505
b1 0
b110 !
b110 /
1P
1b"
1Q
1>"
1R
1x
1$
#1510
0$
#1515
1R
1x
1Q
1>"
1P
1b"
b10 0
b0 !
b0 /
b1 v"
b110 u"
1$
#1520
0$
#1525
b11 0
1P
1b"
1Q
1>"
1R
1x
b10 v"
1$
#1530
0$
#1535
1R
1x
1Q
1>"
1P
1b"
b100 0
b11 v"
1$
#1540
0$
#1545
b101 0
1P
1b"
1Q
1>"
1R
1x
b100 v"
1$
#1550
0$
#1555
1R
1x
1Q
1>"
1P
1b"
b110 0
b101 v"
1$
#1560
0$
#1565
b111 0
1P
1b"
1Q
1>"
1R
1x
b110 v"
1$
#1570
0$
#1575
1R
1x
1Q
1>"
1P
1b"
b1000 0
b111 v"
1$
#1580
0$
#1585
b1001 0
1P
1b"
1Q
1>"
1R
1x
b1000 v"
1$
#1590
0$
#1595
1R
1x
1Q
1>"
1P
1b"
b1010 0
b1001 v"
1$
#1600
0$
#1605
b1011 0
1P
1b"
1Q
1>"
1R
1x
b1010 v"
1$
#1610
0$
#1615
1R
1x
1Q
1>"
1P
1b"
b1100 0
b1011 v"
1$
#1620
0$
#1625
b1101 0
1P
1b"
1Q
1>"
1R
1x
b1100 v"
1$
#1630
0$
#1635
1R
1x
1Q
1>"
1P
1b"
b1110 0
b1101 v"
1$
#1640
0$
#1645
b1111 0
1P
1b"
1Q
1>"
1R
1x
b1110 v"
1$
#1650
0$
#1655
1R
1x
1Q
1>"
1P
1b"
0C
b1111 v"
1$
#1660
0$
#1665
b0 R"
b0 n"
b0 h
b0 &"
b0 S"
b0 m"
b0 i
b0 %"
b0 X"
b0 f"
b0 n
b0 |
b0 Z"
b0 e"
b0 p
b0 {
b0 S
b0 N"
b0 U
b0 d
b0 T
b0 M"
b0 W
b0 c
b0 M
b0 W"
b0 O
b0 m
b0 0
b0 A
b0 B
b0 ;
b0 K
b0 :
b0 J
b0 6
b0 7
b0 3
b0 ?
b0 >
b0 2
b0 E
b0 D
b0 1
b0 9
b0 8
b0 -
b0 L
b0 Z
0P
0b"
b0 \"
b0 a"
b0 O"
b0 o"
b0 Q"
b0 g"
0Q
0>"
b0 ="
0R
0x
b0 r
b0 w
b0 e
b0 '"
b0 g
b0 }
1%
b1111101011111010111110101111101011111010111110101111101011111010 x"
b1111101011111010111110101111101011111010111110101111101011111010 w"
b10 )
b110 t"
b10000 v"
1$
#1670
0$
#1675
b11111111 !
b11111111 /
0%
1$
#1680
0$
#1685
1G
b1111 9
b1111 8
b1 1
1F
1&
b1111 #
b1111 +
b1111 "
b1111 *
b1111 y"
1$
#1690
0$
#1695
b10 1
b1010 9
b1010 8
1H
b1 2
b1111000000000000000000000000000000000000000000000000000000000000 E
b1111000000000000000000000000000000000000000000000000000000000000 D
0&
b1010 #
b1010 +
b1010 "
b1010 *
b1110 y"
1$
#1700
0$
#1705
1I
b1 3
b1111000000000000000000000000000000000000000000000000000000000000 ?
b1111000000000000000000000000000000000000000000000000000000000000 >
b10 2
b101000000000000000000000000000000000000000000000000000000000 E
b101000000000000000000000000000000000000000000000000000000000 D
b11 1
b1111 9
b1111 8
b1111 #
b1111 +
b1111 "
b1111 *
b1101 y"
1$
#1710
0$
#1715
b100 1
b1010 9
b1010 8
b11 2
b11110000000000000000000000000000000000000000000000000000 E
b11110000000000000000000000000000000000000000000000000000 D
b10 3
b1111101000000000000000000000000000000000000000000000000000000000 ?
b1111101000000000000000000000000000000000000000000000000000000000 >
b1010 #
b1010 +
b1010 "
b1010 *
b1100 y"
1$
#1720
0$
#1725
b11 3
b1111101011110000000000000000000000000000000000000000000000000000 ?
b1111101011110000000000000000000000000000000000000000000000000000 >
b100 2
b1010000000000000000000000000000000000000000000000000 E
b1010000000000000000000000000000000000000000000000000 D
b101 1
b1111 9
b1111 8
b1111 #
b1111 +
b1111 "
b1111 *
b1011 y"
1$
#1730
0$
#1735
b110 1
b1010 9
b1010 8
b101 2
b111100000000000000000000000000000000000000000000 E
b111100000000000000000000000000000000000000000000 D
b100 3
b1111101011111010000000000000000000000000000000000000000000000000 ?
b1111101011111010000000000000000000000000000000000000000000000000 >
b1010 #
b1010 +
b1010 "
b1010 *
b1010 y"
1$
#1740
0$
#1745
b101 3
b1111101011111010111100000000000000000000000000000000000000000000 ?
b1111101011111010111100000000000000000000000000000000000000000000 >
b110 2
b10100000000000000000000000000000000000000000 E
b10100000000000000000000000000000000000000000 D
b111 1
b1111 9
b1111 8
b1111 #
b1111 +
b1111 "
b1111 *
b1001 y"
1$
#1750
0$
#1755
b1000 1
b1010 9
b1010 8
b111 2
b1111000000000000000000000000000000000000 E
b1111000000000000000000000000000000000000 D
b110 3
b1111101011111010111110100000000000000000000000000000000000000000 ?
b1111101011111010111110100000000000000000000000000000000000000000 >
b1010 #
b1010 +
b1010 "
b1010 *
b1000 y"
1$
#1760
0$
#1765
b111 3
b1111101011111010111110101111000000000000000000000000000000000000 ?
b1111101011111010111110101111000000000000000000000000000000000000 >
b1000 2
b101000000000000000000000000000000000 E
b101000000000000000000000000000000000 D
b1001 1
b1111 9
b1111 8
b1111 #
b1111 +
b1111 "
b1111 *
b111 y"
1$
#1770
0$
#1775
b1010 1
b1010 9
b1010 8
b1001 2
b11110000000000000000000000000000 E
b11110000000000000000000000000000 D
b1000 3
b1111101011111010111110101111101000000000000000000000000000000000 ?
b1111101011111010111110101111101000000000000000000000000000000000 >
b1010 #
b1010 +
b1010 "
b1010 *
b110 y"
1$
#1780
0$
#1785
b1001 3
b1111101011111010111110101111101011110000000000000000000000000000 ?
b1111101011111010111110101111101011110000000000000000000000000000 >
b1010 2
b1010000000000000000000000000 E
b1010000000000000000000000000 D
b1011 1
b1111 9
b1111 8
b1111 #
b1111 +
b1111 "
b1111 *
b101 y"
1$
#1790
0$
#1795
b1100 1
b1010 9
b1010 8
b1011 2
b111100000000000000000000 E
b111100000000000000000000 D
b1010 3
b1111101011111010111110101111101011111010000000000000000000000000 ?
b1111101011111010111110101111101011111010000000000000000000000000 >
b1010 #
b1010 +
b1010 "
b1010 *
b100 y"
1$
#1800
0$
#1805
b1011 3
b1111101011111010111110101111101011111010111100000000000000000000 ?
b1111101011111010111110101111101011111010111100000000000000000000 >
b1100 2
b10100000000000000000 E
b10100000000000000000 D
b1101 1
b1111 9
b1111 8
b1111 #
b1111 +
b1111 "
b1111 *
b11 y"
1$
#1810
0$
